<?xml version="1.0" standalone="no"?>
<!DOCTYPE svg PUBLIC "-//W3C//DTD SVG 1.1//EN" "http://www.w3.org/Graphics/SVG/1.1/DTD/svg11.dtd" >
<svg xmlns="http://www.w3.org/2000/svg">
<metadata>Generated by IcoMoon</metadata>
<defs>
<font id="icomoon" horiz-adv-x="1024">
<font-face units-per-em="1024" ascent="960" descent="-64" />
<missing-glyph horiz-adv-x="1024" />
<glyph unicode="&#x20;" horiz-adv-x="512" d="" />
<glyph unicode="&#xe900;" glyph-name="effd" d="M691.2 328.534c98.133 59.734 162.132 166.399 162.132 290.132 0.002 187.734-153.6 341.334-341.332 341.334s-341.334-153.6-341.334-341.334c0-123.733 63.999-230.4 162.132-290.132-170.666-64.001-298.666-213.334-332.798-392.534h85.334c42.666 196.266 217.601 341.334 426.666 341.334s384-145.066 426.666-341.334h85.334c-34.132 183.467-162.132 332.8-332.8 392.534zM256 618.666c0 140.799 115.201 256 256 256s256-115.201 256-256-115.201-256-256-256-256 115.201-256 256z" />
<glyph unicode="&#xe901;" glyph-name="wqsd" d="M997.291 249.003c-11.776 0-21.333 9.557-21.333 21.333v180.224c0 56.235-43.904 104.32-100.011 109.44-8.661 0.811-15.957 6.741-18.475 15.104l-65.792 217.813h-551.467l-65.664-217.259c-2.603-8.789-10.581-14.891-19.755-15.189-58.88-1.792-106.752-51.115-106.752-109.909v-180.224c0-11.776-9.557-21.333-21.333-21.333s-21.333 9.557-21.333 21.333v180.224c0 76.373 58.155 141.227 132.48 151.296l66.133 218.624c2.731 8.96 11.051 15.104 20.395 15.104h583.125c9.387 0 17.664-6.187 20.437-15.104l66.475-220.032c70.699-13.525 124.203-76.757 124.203-149.888v-180.224c0-11.776-9.557-21.333-21.333-21.333zM812.331 261.675c-59.392 0-107.691 48.341-107.691 107.691 0 59.307 48.341 107.563 107.691 107.563s107.648-48.256 107.648-107.563c0-59.349-48.299-107.691-107.648-107.691zM812.331 434.261c-35.883 0-65.024-29.099-65.024-64.896 0-35.883 29.184-65.024 65.024-65.024s64.981 29.184 64.981 65.024c0 35.84-29.184 64.896-64.981 64.896zM210.219 261.675c-59.349 0-107.563 48.341-107.563 107.691 0 59.307 48.256 107.563 107.563 107.563 59.392 0 107.648-48.256 107.648-107.563 0.043-59.349-48.256-107.691-107.648-107.691zM210.219 434.261c-35.797 0-64.896-29.099-64.896-64.896 0-35.883 29.141-65.024 64.896-65.024 35.84 0 64.981 29.184 64.981 65.024 0.043 35.84-29.141 64.896-64.981 64.896zM791.637 560.469v0l-549.333 0.043c-6.613 0-12.843 3.029-16.896 8.277-4.011 5.248-5.376 12.075-3.712 18.432l41.643 159.872c2.432 9.429 10.923 15.957 20.608 15.957h463.019c9.6 0 17.963-6.357 20.523-15.573l44.672-159.915c1.792-6.4 0.512-13.355-3.541-18.688-4.011-5.291-10.325-8.405-16.981-8.405zM269.952 603.179l493.568-0.043-32.768 117.248h-430.293l-30.507-117.205zM953.216 60.416h-179.84c-11.776 0-21.333 9.557-21.333 21.333v90.496h-472.747v-90.496c0-11.776-9.557-21.333-21.333-21.333h-179.797c-11.776 0-21.333 9.557-21.333 21.333v90.496h-30.123c-11.776 0-21.333 9.557-21.333 21.333v76.8c0 11.776 9.557 21.333 21.333 21.333s21.333-9.557 21.333-21.333v-55.467h30.080c11.776 0 21.333-9.557 21.333-21.333v-90.496h137.173v90.496c0 11.776 9.557 21.333 21.333 21.333h515.413c11.776 0 21.333-9.557 21.333-21.333v-90.496h137.173v90.496c0 11.776 9.557 21.333 21.333 21.333h22.699v82.475c0 11.776 9.557 21.333 21.333 21.333s21.333-9.557 21.333-21.333v-103.851c0-11.776-9.557-21.333-21.333-21.333h-22.699v-90.496c0-11.776-9.515-21.291-21.333-21.291zM660.096 425.259h-292.011c-11.776 0-21.333 9.557-21.333 21.333s9.557 21.333 21.333 21.333h292.011c11.776 0 21.333-9.557 21.333-21.333s-9.515-21.333-21.333-21.333zM670.72 358.997h-313.259c-11.776 0-21.333 9.557-21.333 21.333s9.557 21.333 21.333 21.333h313.259c11.776 0 21.333-9.557 21.333-21.333s-9.515-21.333-21.333-21.333zM680.917 292.693h-333.611c-11.776 0-21.333 9.557-21.333 21.333s9.557 21.333 21.333 21.333h333.611c11.776 0 21.333-9.557 21.333-21.333s-9.515-21.333-21.333-21.333zM985.899 172.245h-931.029c-11.776 0-21.333 9.557-21.333 21.333s9.557 21.333 21.333 21.333h931.029c11.776 0 21.333-9.557 21.333-21.333s-9.557-21.333-21.333-21.333z" />
<glyph unicode="&#xe902;" glyph-name="checklist" d="M938.667 960h-716.8c-47.104-0.055-85.278-38.229-85.333-85.333v-802.133h-119.467c-9.425 0-17.067-7.642-17.067-17.067v-34.133c0.055-47.104 38.229-85.278 85.333-85.333h716.8c47.104 0.055 85.278 38.229 85.333 85.333v402.534l105.933 105.933c20.802 20.802 20.802 54.53 0 75.332s-54.53 20.802-75.332 0l-30.601-30.601v248.934h119.467c9.425 0 17.067 7.642 17.067 17.067v34.133c-0.055 47.104-38.229 85.278-85.333 85.333zM85.333-29.867c-28.277 0-51.2 22.923-51.2 51.2v17.067h682.667v-17.067c0.038-5.318 0.576-10.62 1.604-15.838 0.307-1.707 0.802-3.157 1.195-4.745 0.847-3.475 1.907-6.895 3.174-10.24 0.666-1.707 1.382-3.311 2.15-4.949 1.455-3.11 3.098-6.131 4.915-9.045 0.887-1.434 1.707-2.884 2.714-4.25 0.478-0.7 0.836-1.468 1.348-2.133h-648.567zM853.333 21.333c0-28.277-22.923-51.2-51.2-51.2s-51.2 22.923-51.2 51.2v34.133c0 9.425-7.642 17.067-17.067 17.067h-563.2v802.133c0 28.277 22.923 51.2 51.2 51.2h648.533c-0.512-0.666-0.87-1.434-1.348-2.133-0.973-1.365-1.826-2.816-2.714-4.25-1.818-2.914-3.46-5.935-4.915-9.045-0.768-1.707-1.485-3.277-2.15-4.949-1.267-3.345-2.327-6.765-3.174-10.24-0.393-1.587-0.887-3.123-1.195-4.745-1.018-5.218-1.542-10.522-1.57-15.838v-334.268l-216.866-216.866c-2.189-2.189-3.74-4.932-4.489-7.936l-17.067-68.267c-1.451-5.813 0.254-11.959 4.489-16.196 1.44-1.385 3.117-2.5 4.949-3.294 0.444-0.205 0.853-0.393 1.314-0.563 1.822-0.695 3.75-1.077 5.7-1.126h0.102c1.393 0.002 2.78 0.173 4.13 0.512l68.267 17.067c3.004 0.749 5.747 2.3 7.936 4.489l141.534 141.517v-368.401zM942.199 581.001c7.573 7.234 19.494 7.234 27.068 0 7.46-7.479 7.46-19.588 0-27.068l-13.534-13.534-27.068 27.068 13.534 13.534zM904.533 543.334l27.068-27.068-240.64-240.64-36.079-9.028 9.028 36.079 240.623 240.657zM989.867 857.6h-102.4v17.067c0 28.277 22.923 51.2 51.2 51.2s51.2-22.923 51.2-51.2v-17.067zM324.267 857.6h375.467v-34.133h-375.467v34.133zM380.467 784.333l-31.283-31.283c-2.398 1.359-5.097 2.097-7.851 2.15h-85.333c-9.425 0-17.067-7.642-17.067-17.067v-85.333c0-9.425 7.642-17.067 17.067-17.067h85.333c9.425 0 17.067 7.642 17.067 17.067v61.201l46.199 46.199-24.132 24.132zM324.267 669.867h-51.2v51.2h44.134l-22.067-22.067 24.132-24.132 5.001 5.001v-10.001zM426.667 755.2h358.4v-34.133h-358.4v34.133zM426.667 686.933h290.133v-34.133h-290.133v34.133zM380.467 613.666l-31.283-31.283c-2.398 1.359-5.097 2.097-7.851 2.15h-85.333c-9.425 0-17.067-7.642-17.067-17.067v-85.333c0-9.425 7.642-17.067 17.067-17.067h85.333c9.425 0 17.067 7.642 17.067 17.067v61.201l46.199 46.199-24.132 24.132zM324.267 499.2h-51.2v51.2h44.134l-22.067-22.067 24.132-24.132 5.001 5.001v-10.001zM426.667 584.533h358.4v-34.133h-358.4v34.133zM426.667 516.267h290.133v-34.133h-290.133v34.133zM380.467 442.999l-31.283-31.283c-2.398 1.359-5.097 2.097-7.851 2.15h-85.333c-9.425 0-17.067-7.642-17.067-17.067v-85.333c0-9.425 7.642-17.067 17.067-17.067h85.333c9.425 0 17.067 7.642 17.067 17.067v61.201l46.199 46.199-24.132 24.132zM324.267 328.533h-51.2v51.2h44.134l-22.067-22.067 24.132-24.132 5.001 5.001v-10.001zM426.667 413.867h221.867v-34.133h-221.867v34.133zM426.667 345.6h153.6v-34.133h-153.6v34.133zM380.467 272.333l-31.283-31.283c-2.398 1.359-5.097 2.097-7.851 2.15h-85.333c-9.425 0-17.067-7.642-17.067-17.067v-85.333c0-9.425 7.642-17.067 17.067-17.067h85.333c9.425 0 17.067 7.642 17.067 17.067v61.201l46.199 46.199-24.132 24.132zM324.267 157.867h-51.2v51.2h44.134l-22.067-22.067 24.132-24.132 5.001 5.001v-10.001zM426.667 243.2h153.6v-34.133h-153.6v34.133zM426.667 174.933h290.133v-34.133h-290.133v34.133z" />
<glyph unicode="&#xe903;" glyph-name="error" d="M512 960c-282.309 0-512-229.671-512-512s229.691-512 512-512 512 229.671 512 512-229.691 512-512 512zM512-24.615c-260.588 0-472.615 212.027-472.615 472.615s212.027 472.615 472.615 472.615 472.615-212.027 472.615-472.615-212.027-472.615-472.615-472.615zM703.153 639.153c-7.7 7.7-20.145 7.7-27.845 0l-163.308-163.308-163.308 163.308c-7.7 7.7-20.145 7.7-27.845 0s-7.7-20.145 0-27.845l163.308-163.308-163.308-163.308c-7.7-7.7-7.7-20.145 0-27.845 3.84-3.84 8.881-5.77 13.922-5.77s10.082 1.93 13.922 5.77l163.308 163.308 163.308-163.308c3.84-3.84 8.881-5.77 13.922-5.77s10.082 1.93 13.922 5.77c7.7 7.7 7.7 20.145 0 27.845l-163.308 163.308 163.308 163.308c7.7 7.7 7.7 20.145 0 27.845z" />
<glyph unicode="&#xe904;" glyph-name="success" d="M512 960c-282.309 0-512-229.671-512-512s229.691-512 512-512 512 229.671 512 512-229.691 512-512 512zM512-24.615c-260.588 0-472.615 212.027-472.615 472.615s212.027 472.615 472.615 472.615 472.615-212.027 472.615-472.615-212.027-472.615-472.615-472.615zM753.27 657.999l-302.651-340.48-182.331 145.861c-8.468 6.794-20.894 5.396-27.668-3.072-6.794-8.507-5.415-20.894 3.072-27.687l196.923-157.538c3.623-2.895 7.975-4.313 12.308-4.313 5.435 0 10.85 2.245 14.73 6.617l315.077 354.462c7.227 8.113 6.498 20.578-1.634 27.786-8.153 7.247-20.578 6.518-27.825-1.634z" />
<glyph unicode="&#xe9cd;" horiz-adv-x="1294" d="M2.514 154.172h38.708l9.551 23.627h51.778l10.054-23.627h39.713l-56.805 134.724h-35.692l-57.308-134.724zM61.832 206.955l15.081 38.205 14.578-38.205h-29.659zM253.361 151.658c9.551 0 18.097 1.005 25.638 3.519 8.043 2.514 14.076 6.032 19.605 11.059s10.054 11.562 12.568 19.103c3.016 8.043 4.524 17.092 4.524 27.649v74.4h-37.703v-74.902c0-6.535-1.005-11.562-3.016-15.584s-5.027-7.038-8.546-9.049c-3.519-2.011-8.043-3.016-12.568-3.016-5.027 0-9.551 1.005-13.070 3.016-4.022 2.514-6.535 5.027-8.546 9.551-2.011 4.022-3.016 9.551-3.016 16.086v74.4h-37.703v-74.902c0-10.557 1.508-19.605 4.524-27.146 3.016-8.043 7.038-14.076 12.065-19.103 5.53-5.027 12.065-8.546 19.605-11.059 7.541-3.016 16.086-4.022 25.638-4.022v0zM403.668 154.172h36.697v101.043h40.216v32.676h-117.129v-32.676h40.216v-101.043zM591.678 151.156c8.043 0 16.086 1.005 23.124 3.519s14.076 6.032 20.108 10.054c6.032 4.524 11.059 9.049 15.584 15.081s7.541 12.065 10.054 19.103c2.514 7.038 3.519 14.076 3.519 21.616v0.503c-0.503 7.541-1.508 15.081-3.519 21.616-2.514 7.038-6.032 13.573-10.054 19.103-4.022 6.032-9.049 10.557-15.081 14.578-6.032 4.524-12.568 7.541-20.108 10.054-7.038 2.514-14.578 3.519-23.124 3.519-8.043 0-16.086-1.005-23.124-3.519s-14.076-6.032-20.108-10.054c-6.032-4.524-11.059-9.049-15.584-15.081s-7.541-12.065-10.054-19.103c-2.514-7.038-3.519-14.076-3.519-22.119v-0.503c0.503-7.541 1.508-15.081 3.519-21.616 2.514-7.038 5.53-13.573 10.054-19.103 4.022-6.032 9.049-10.557 15.081-14.578 6.032-4.524 12.568-7.541 20.108-10.054 7.038-1.508 14.578-3.016 23.124-3.016v0zM591.678 184.837c-5.027 0-9.551 1.005-14.076 3.016-4.022 2.011-7.541 4.524-10.557 8.043s-5.027 7.038-7.038 11.562c-1.508 4.524-2.514 9.049-2.514 13.573v0.503c0.503 5.027 1.005 9.049 2.514 13.573s4.022 8.043 7.038 11.562c3.016 3.519 6.535 6.032 10.557 8.043 4.524 1.508 8.546 3.016 14.076 3.016s10.054-1.005 14.076-3.016c4.524-2.011 8.043-4.524 11.059-8.043s5.027-7.038 7.038-11.562c1.508-4.524 2.514-9.049 2.514-14.076v-0.503c0-5.027-1.005-9.049-2.514-13.573s-4.022-8.043-7.038-11.562c-3.016-3.519-6.535-6.032-10.557-8.043-4.524-1.508-9.049-2.514-14.578-2.514v0zM716.348 154.172h36.697v73.394l57.308-73.394h32.173v133.718h-36.697v-70.881l-54.794 70.881h-34.686v-133.718zM899.833 154.172h37.703v133.718h-37.703v-133.718zM1047.124 151.658c8.043 0 15.584 1.005 22.622 3.016 6.535 1.508 12.065 4.524 16.589 8.546 5.027 3.519 8.546 8.546 11.059 13.573 2.514 5.53 3.519 11.562 3.519 18.097v1.005c0 6.032-1.005 11.562-3.519 16.086-2.011 4.524-5.53 8.546-10.054 11.562s-9.551 6.032-15.584 8.043c-6.032 2.514-13.070 4.022-20.611 6.032-4.524 1.005-8.546 2.011-11.562 3.016s-5.027 2.011-7.038 3.016c-1.508 1.005-3.016 2.011-3.519 3.016-1.005 1.005-1.005 2.514-1.005 4.022v0.503c0 1.508 0.503 3.016 1.508 4.524s2.514 2.514 4.524 3.016c2.011 0.503 4.524 1.005 7.541 1.005 4.022 0 8.043-0.503 12.065-1.508 4.524-1.005 8.546-2.514 12.568-4.524 4.524-1.508 8.546-4.524 12.568-7.038l18.6 26.14c-7.038 6.032-15.584 10.557-24.632 13.573s-19.605 4.524-30.665 4.524c-8.043 0-15.081-1.005-21.616-3.016-6.535-2.514-12.065-5.027-16.086-9.049-4.524-3.519-8.043-8.546-10.557-13.573s-3.519-10.557-3.519-17.092v-0.503c0-7.038 1.508-12.568 3.519-17.092 2.514-5.027 6.032-8.546 10.557-11.562s10.054-6.032 16.086-8.043c6.032-2.011 12.568-3.519 20.108-5.53 4.524-1.005 8.043-2.011 11.059-3.016s5.027-2.011 7.038-3.016c2.011-1.005 3.016-2.011 3.519-3.016s1.005-2.514 1.005-4.022v-0.503c0-3.016-1.005-5.027-3.519-6.535s-6.535-2.514-11.562-2.514c-8.043 0-15.584 1.508-22.622 4.022-7.038 3.016-14.076 6.535-21.113 12.065l-20.611-24.632c5.53-5.027 11.562-9.049 18.097-12.568 6.535-3.016 14.076-5.53 21.616-7.038 7.541-2.011 15.584-3.016 23.627-3.016v0zM1152.189 154.172h36.194v76.41l34.184-51.778h1.005l34.184 52.281v-76.913h36.697v133.718h-39.211l-31.67-51.778-32.173 51.778h-39.211v-133.718z" />
<glyph unicode="&#xe9ce;" horiz-adv-x="1294" d="M1073.265 897.665c0-35.189-27.649-62.838-63.843-62.838-35.692 0-63.843 27.649-63.843 62.838-0.503 34.686 28.151 62.335 63.843 62.335s63.843-27.649 63.843-62.335zM961.162 897.665c0-27.649 20.611-49.767 48.762-49.767 27.146 0 47.254 22.119 47.254 49.265 0 27.649-20.108 50.27-47.757 50.27s-48.259-22.119-48.259-49.767zM999.368 865.492h-14.076v61.832c5.53 1.005 13.573 2.011 24.13 2.011 11.562 0 17.092-2.011 21.616-4.524 3.519-2.514 6.032-7.541 6.032-13.573 0-7.038-5.53-12.065-13.070-14.578v-1.005c6.032-2.514 9.551-7.038 11.562-15.081 2.011-9.551 3.016-13.070 4.524-15.584h-15.584c-2.011 2.514-3.016 8.043-5.027 15.081-1.005 7.038-5.027 10.054-13.070 10.054h-7.038v-24.632zM999.87 900.681h7.038c8.043 0 14.578 2.514 14.578 9.049 0 5.53-4.022 9.551-13.070 9.551-4.022 0-6.535-0.503-8.043-1.005v-17.595z" />
<glyph unicode="&#xe9cf;" horiz-adv-x="1294" d="M647.98 888.114c234.761 0 424.782-190.021 424.782-424.279 0-39.211-5.027-77.416-15.584-113.61h-818.898c-10.054 36.194-15.584 73.897-15.584 113.61 0.503 234.258 190.523 424.279 425.284 424.279v0z" />
<glyph unicode="&#xe9d0;" horiz-adv-x="1294" d="M471.533 670.947c-8.546 0-16.086 7.038-16.086 16.086 0.503 8.546 7.541 15.584 16.086 15.584 35.189-0.503 52.281 13.573 70.378 27.649 23.627 19.103 49.265 38.708 105.567 39.713 53.789 1.005 76.41-17.595 99.535-36.194 18.097-14.578 36.194-29.659 77.416-31.167 8.546-0.503 15.584-7.541 15.584-16.086 0-9.049-7.541-16.086-16.086-15.584-51.778 1.005-74.4 20.108-97.021 38.205-18.6 15.081-36.697 29.659-78.421 29.157-45.746-0.503-66.356-17.092-85.962-32.676-23.124-17.595-44.74-34.686-90.989-34.686v0zM862.633 647.321v0c12.568 0.503 23.627-5.027 32.173-13.070 8.546-8.546 13.573-19.605 13.573-32.173v-122.659c0-12.568-5.027-23.627-13.573-32.173-8.043-8.546-19.605-13.573-32.173-13.573v0h-43.232c-2.514-6.535-6.535-12.568-11.562-17.595-9.049-9.049-21.616-14.578-35.692-14.578s-26.643 6.032-35.692 14.578c-4.524 5.027-8.546 10.557-11.562 17.595h-129.194v-0.503h-27.146c-2.514-6.535-6.535-12.568-11.562-17.595-9.049-9.049-21.616-14.578-35.189-14.578-14.076 0-26.643 5.53-35.189 14.578-5.027 5.027-8.546 11.059-11.562 17.595h-43.232c-12.568 0-23.627 5.027-32.173 13.573-8.546 8.043-13.573 19.605-13.573 32.173v122.659c0 12.568 5.027 24.13 13.573 32.173 8.043 8.043 19.605 13.573 32.173 13.573v0c165.388 0 267.436 0 430.814 0v0zM433.327 613.137v0c-3.016 0-6.032-1.508-8.043-3.519s-3.016-4.524-3.016-8.043v-122.659c0-3.016 1.005-6.032 3.016-8.043s5.027-3.519 8.043-3.519v0h42.227c2.514 7.038 6.535 14.076 12.065 19.605 9.049 9.049 21.616 14.578 35.189 14.578 14.076 0 26.643-5.53 35.189-14.578 5.53-5.53 9.551-12.065 12.065-19.605h34.686v0.503h120.145c2.514 7.038 6.535 14.076 12.065 19.103 9.049 9.049 21.616 14.578 35.692 14.578 13.573 0 26.643-5.53 35.692-14.578 5.027-5.027 9.551-12.065 12.065-19.103h42.227c3.016 0 6.032 1.005 8.043 3.016s3.016 5.027 3.016 8.043v123.162c0 3.016-1.005 6.032-3.016 8.043s-5.027 3.016-8.043 3.016v0c-143.27 0-286.036 0-429.306 0v0zM783.709 463.332c-3.016 3.016-6.535 4.524-11.059 4.524s-8.546-1.508-11.059-4.524c-3.016-3.016-4.524-7.038-4.524-11.562s1.508-8.546 4.524-11.059c3.016-3.016 7.038-4.524 11.059-4.524 4.524 0 8.043 1.508 11.059 4.524s5.027 7.038 5.027 11.059h-0.503c0 4.524-1.508 8.546-4.524 11.562v0zM534.37 462.83c-3.016 3.016-7.038 4.524-11.562 4.524s-8.546-1.508-11.059-4.524c-3.016-3.016-5.027-6.535-5.027-11.059s2.011-8.043 5.027-11.059c2.514-3.016 6.535-4.524 11.059-4.524s8.546 1.508 11.562 4.524c3.016 3.016 4.524 6.535 4.524 11.059v0c0 4.524-1.508 8.546-4.524 11.059v0z" />
<glyph unicode="&#xe9d1;" horiz-adv-x="1294" d="M57.811-17.249c0 4.524-1.005 8.546-2.514 12.568s-4.022 7.038-7.038 10.054c-3.016 3.016-6.535 5.027-10.557 6.535s-8.546 2.514-13.573 2.514h-24.13v-63.34h23.627c5.027 0 9.551 0.503 13.573 2.514 4.524 1.508 8.043 4.022 10.557 6.535 3.016 3.016 5.53 6.535 7.038 10.054 2.011 4.022 3.016 8.043 3.016 12.568v0zM45.746-17.249c0-3.016-0.503-6.032-1.508-8.546s-2.514-5.027-4.524-6.535c-1.508-2.011-4.022-3.519-7.038-4.524-2.514-1.005-5.53-1.508-9.049-1.508h-12.065v43.232h12.568c3.519 0 6.535-0.503 9.049-1.508 3.016-1.005 5.027-2.514 7.038-4.524s3.519-4.524 4.524-7.038c1.005-3.016 1.005-6.032 1.005-9.049v0zM118.637-25.292c0 3.519-0.503 7.038-2.011 10.054-1.005 3.016-3.016 6.032-5.027 8.043-2.514 2.011-5.027 4.022-8.043 5.027-3.016 1.508-6.535 2.011-10.054 2.011-4.022 0-7.038-0.503-10.557-2.011-3.016-1.508-6.032-3.016-8.043-5.53s-4.022-5.027-5.027-8.043c-1.508-3.016-2.011-6.535-2.011-10.054s0.503-6.535 2.011-10.054c1.005-3.016 3.016-5.53 5.027-8.043 2.514-2.514 5.027-4.022 8.043-5.027 3.016-1.508 6.535-2.011 10.054-2.011 4.022 0 7.038 0.503 10.557 2.011 3.016 1.005 6.032 3.016 8.043 5.027 2.514 2.514 4.022 5.027 5.027 8.043 1.508 4.022 2.011 7.541 2.011 10.557v0zM107.578-25.292c0-2.011-0.503-4.022-1.005-6.032-1.005-1.508-1.508-3.519-3.016-5.027-1.005-1.005-2.514-2.514-4.524-3.016-2.011-1.005-4.022-1.005-6.032-1.005-2.514 0-4.022 0.503-6.032 1.005-1.508 1.005-3.016 2.011-4.524 3.016-1.005 1.508-2.514 3.016-3.016 5.027-1.005 1.508-1.005 4.022-1.005 6.032 0 2.514 0.503 4.524 1.005 6.032s1.508 3.519 3.016 5.027c1.005 1.508 2.514 2.514 4.524 3.016 1.508 1.005 3.519 1.508 6.032 1.508s4.022-0.503 6.032-1.508c1.508-0.503 3.016-1.508 4.524-3.016 1.005-1.508 2.514-3.016 3.016-5.027 1.005-2.011 1.005-4.022 1.005-6.032v0zM178.459-25.292c0 3.519-0.503 7.038-1.508 10.054-1.508 3.016-3.016 6.032-5.53 8.043s-5.027 4.022-8.043 5.027c-3.016 1.508-6.535 2.011-10.054 2.011s-7.038-0.503-10.054-2.011c-3.016-1.508-6.032-3.016-8.043-5.53-2.514-2.514-4.022-5.027-5.53-8.043-1.005-3.016-2.011-6.535-2.011-10.054s1.005-6.535 2.011-10.054c1.005-3.016 3.016-5.53 5.027-8.043 2.514-2.514 5.027-4.022 8.043-5.027 3.016-1.508 6.535-2.011 10.054-2.011 4.022 0 7.038 0.503 10.557 2.011 3.016 1.005 6.032 3.016 8.043 5.027 2.514 2.514 4.022 5.027 5.53 8.043 1.005 4.022 1.508 7.541 1.508 10.557v0zM167.399-25.292c0-2.011-0.503-4.022-1.005-6.032-0.503-1.508-2.011-3.519-3.016-5.027-1.508-1.005-3.016-2.514-4.524-3.016-1.508-1.005-4.022-1.005-6.032-1.005s-4.022 0.503-6.032 1.005c-1.508 1.005-3.519 2.011-4.524 3.016-1.508 1.508-2.514 3.016-3.016 5.027-0.503 1.508-1.005 4.022-1.005 6.032 0 2.514 0.503 4.524 1.005 6.032s1.508 3.519 3.016 5.027c1.005 1.508 3.016 2.514 4.524 3.016 1.508 1.005 4.022 1.508 6.032 1.508 2.514 0 4.524-0.503 6.032-1.508 1.508-0.503 3.016-1.508 4.524-3.016 1.005-1.508 2.514-3.016 3.016-5.027 1.005-2.011 1.005-4.022 1.005-6.032v0zM201.080-30.822c0 3.016 0.503 6.032 1.005 8.043 1.005 2.514 2.011 4.524 3.519 6.032s3.016 3.016 5.027 3.519c2.011 1.005 4.524 1.005 6.535 1.005h1.005v12.065c-4.524 0-8.043-1.005-10.557-3.016s-5.027-5.027-6.535-8.546v10.557h-11.059v-47.757h11.059v18.097zM252.858-26.8v11.059h-27.146v-11.059h27.146zM299.107-34.843v0c0 2.514-0.503 4.022-1.508 5.53s-2.011 3.016-3.519 4.022c-1.508 1.005-3.016 1.508-4.524 2.514-1.508 0.503-3.519 1.508-5.027 2.011s-3.016 1.005-4.022 1.005c-1.508 0.503-2.514 1.005-3.519 1.508s-2.011 1.005-2.514 1.508c-0.503 0.503-1.005 1.508-1.005 2.514v0c0 1.508 0.503 2.514 1.508 3.519s3.016 1.508 5.027 1.508c2.011 0 4.524-0.503 6.535-1.005 2.514-1.005 4.524-2.011 7.038-3.519l4.524 8.043c-2.514 1.508-5.027 3.016-8.546 4.022-3.016 1.005-6.032 1.508-9.049 1.508-2.514 0-4.524-0.503-6.535-1.005-2.011-1.005-3.519-1.508-5.53-3.016-1.508-1.508-2.514-3.016-3.519-4.524-1.005-2.011-1.508-4.022-1.508-6.032v-0.503c0-2.514 0.503-4.524 1.508-6.032s2.011-3.016 3.519-4.022c1.508-1.005 3.016-2.011 5.027-2.514 1.508-1.005 3.519-1.508 5.027-2.011s3.016-1.005 4.022-1.005c1.508-0.503 2.514-1.005 3.519-1.508s1.508-1.005 2.514-1.508c0.503-0.503 1.005-1.508 1.005-2.514v-0.503c0-1.508-0.503-2.514-2.011-4.022-1.005-1.005-3.016-1.005-5.53-1.005s-5.027 0.503-7.541 1.508c-3.016 1.005-5.53 2.514-8.043 4.524l-5.027-7.541c3.016-2.514 6.535-4.022 10.054-5.027s7.038-2.011 10.557-2.011c2.514 0 4.524 0.503 7.038 1.005 2.011 0.503 4.022 1.508 5.53 2.514 1.508 1.508 3.016 3.016 4.022 5.027 0 2.011 0.503 4.524 0.503 7.038v0zM322.733-10.714h13.070v9.049h-13.070v13.573h-11.059v-13.573h-6.032v-9.049h6.032v-25.638c0-2.514 0.503-4.524 1.005-6.535 0.503-1.508 1.508-3.016 3.016-4.524 1.005-1.005 2.514-1.508 4.524-2.514 1.508-0.503 3.519-0.503 5.53-0.503s4.022 0.503 5.53 0.503c1.508 0.503 3.016 1.005 4.524 1.508v9.049c-2.011-1.005-4.524-1.508-6.535-1.508s-3.519 0.503-4.524 1.508c-1.005 1.005-1.508 2.514-1.508 4.524v24.13zM353.901-29.314h35.189c0.503 0.503 0.503 1.005 0.503 1.508s0 1.005 0 1.508c0 3.519-0.503 7.038-1.508 10.054s-2.514 6.032-4.524 8.043c-2.011 2.514-4.524 4.524-7.038 6.032-3.016 1.005-6.032 2.011-10.054 2.011-3.519 0-6.535-0.503-9.551-2.011s-5.53-3.016-7.541-5.53c-2.011-2.514-4.022-5.027-5.027-8.043s-1.508-6.535-1.508-10.054c0-3.519 0.503-7.038 1.508-10.054s3.016-6.032 5.027-8.043c2.514-2.514 5.027-4.022 8.043-5.027s6.535-1.508 10.054-1.508c4.524 0 8.043 1.005 11.562 2.514 3.016 1.508 6.032 3.519 8.043 6.535l-6.535 6.032c-2.011-2.011-3.519-3.519-6.032-4.524-2.011-1.005-4.524-1.508-7.038-1.508-3.519 0-6.535 1.005-9.049 3.016-2.514 2.514-4.022 5.027-4.524 9.049v0zM353.901-21.773c0.503 4.022 2.011 7.038 4.022 9.049 2.514 2.514 5.027 3.519 8.546 3.519 1.508 0 3.519-0.503 5.027-1.005s2.514-1.508 4.022-2.514c1.005-1.005 1.508-2.514 2.514-4.022 0.503-1.508 1.005-3.016 1.005-5.027h-25.135zM450.419-25.292c0 4.022-0.503 8.043-2.011 10.557-1.005 3.016-3.016 6.032-5.027 8.043-2.514 2.514-4.524 4.022-7.038 5.027s-5.53 1.508-8.546 1.508c-4.022 0-7.038-1.005-9.551-2.514s-5.027-3.519-6.535-6.535v8.043h-11.059v-62.838h11.059v22.119c1.508-2.011 4.022-4.022 6.535-6.032 2.514-1.508 6.032-2.514 9.551-2.514 3.016 0 6.032 0.503 8.546 1.508 3.016 1.005 5.027 2.514 7.038 5.027 2.011 2.011 4.022 4.524 5.027 8.043 1.508 3.016 2.011 6.535 2.011 10.557v0zM439.36-25.292c0-2.514-0.503-4.524-1.005-6.535-0.503-1.508-1.508-3.519-3.016-4.524-1.005-1.508-2.514-2.514-4.524-3.016-2.011-1.005-3.519-1.005-5.027-1.005-2.011 0-3.519 0.503-5.53 1.005-1.508 0.503-3.016 1.508-4.524 3.016-1.508 1.005-2.514 3.016-3.016 5.027-0.503 1.508-1.005 3.519-1.005 6.032s0.503 4.524 1.005 6.535c1.005 2.011 2.011 3.519 3.016 5.027s2.514 2.514 4.524 3.016c1.508 1.005 3.519 1.005 5.53 1.005 1.508 0 3.519-0.503 5.027-1.005s3.016-1.508 4.524-3.016c1.005-1.005 2.514-3.016 3.016-4.524 0.503-2.514 1.005-4.524 1.005-7.038v0zM545.932-38.865l-7.038 7.038c-3.016-2.514-5.53-4.524-8.546-6.032-2.514-1.508-6.032-2.514-10.054-2.514-3.016 0-6.032 0.503-8.546 1.508-2.514 1.508-5.027 3.016-7.038 5.027-1.508 2.011-3.016 4.524-4.524 7.038-1.005 3.016-1.508 6.032-1.508 9.049s0.503 6.032 1.508 8.546c1.005 3.016 2.514 5.027 4.524 7.038s4.524 3.519 7.038 5.027c2.514 1.005 5.027 1.508 8.546 1.508s6.535-1.005 9.551-2.514c3.016-1.508 5.53-3.016 8.043-6.032l7.038 8.546c-1.508 1.508-3.016 3.016-5.027 4.022-1.508 1.005-3.519 2.514-5.53 3.016-2.011 1.005-4.022 1.508-6.535 2.011s-5.027 0.503-8.043 0.503c-5.027 0-9.551-1.005-13.573-2.514s-7.541-4.022-10.557-7.038c-3.016-3.016-5.027-6.535-6.535-10.557-1.508-3.519-2.514-8.043-2.514-12.568s0.503-9.049 2.514-12.568c1.508-4.022 3.519-7.541 6.535-10.557s6.535-5.53 10.557-7.038c4.022-1.508 8.043-2.514 12.568-2.514 3.016 0 6.032 0.503 8.043 0.503 2.514 0.503 5.027 1.508 7.038 2.514s4.022 2.514 6.032 3.519c2.514 2.514 4.524 4.022 6.032 6.032v0zM596.705-48.919v28.654c0 6.535-1.508 11.562-5.027 15.081s-8.546 5.027-16.086 5.027c-4.022 0-7.038-0.503-10.054-1.005s-5.53-1.508-8.043-3.016l3.016-8.546c2.514 1.005 4.524 1.508 6.535 2.011 2.514 0.503 4.524 1.005 7.541 1.005 4.022 0 6.535-1.005 8.546-2.514s3.016-4.524 3.016-7.541v-1.508c-1.508 1.005-4.022 1.005-6.032 1.508s-4.524 0.503-7.038 0.503c-3.016 0-5.53-0.503-8.043-1.005s-4.524-1.508-6.535-3.016c-1.508-1.005-3.016-3.016-4.022-4.524-1.005-2.011-1.508-4.524-1.508-7.038v-0.503c0-2.514 0.503-4.524 1.508-6.535 1.005-1.508 2.514-3.519 4.022-4.524s3.519-2.011 5.53-3.016c2.011-0.503 4.022-1.005 6.535-1.005 4.022 0 7.038 0.503 9.049 2.011 2.514 1.508 4.524 3.016 6.535 5.027v-6.032h10.557zM586.148-31.827c0-1.508-0.503-3.016-1.005-4.524-0.503-1.005-1.508-2.514-3.016-3.016-1.005-1.005-2.514-1.508-4.022-2.011s-3.016-0.503-5.027-0.503c-2.514 0-5.027 0.503-6.535 1.508s-2.514 3.016-2.514 5.027v0.503c0 2.514 1.005 4.524 3.016 6.032 2.011 1.005 4.524 2.011 8.043 2.011 2.011 0 4.022-0.503 6.032-0.503 1.508-0.503 3.519-1.005 5.027-1.508v-3.016zM620.835-30.822c0 3.016 0.503 6.032 1.005 8.043 1.005 2.514 2.011 4.524 3.519 6.032s3.016 3.016 5.027 3.519c1.508 1.005 4.022 1.005 6.535 1.005h1.005v12.065c-4.524 0-8.043-1.005-10.557-3.016s-5.027-5.027-6.535-8.546v10.557h-11.059v-47.757h11.059v18.097zM731.429-38.865l-7.038 7.038c-3.016-2.514-5.53-4.524-8.546-6.032s-6.032-2.514-10.054-2.514c-3.016 0-6.032 0.503-8.546 1.508-2.514 1.508-5.027 3.016-7.038 5.027-1.508 2.011-3.016 4.524-4.524 7.038-1.005 3.016-1.508 6.032-1.508 9.049s0.503 6.032 1.508 8.546c1.005 3.016 2.514 5.027 4.524 7.038s4.524 3.519 7.038 5.027c2.514 1.005 5.027 1.508 8.546 1.508s6.535-1.005 9.551-2.514c3.016-1.508 5.53-3.016 8.043-6.032l7.038 8.546c-1.508 1.508-3.016 3.016-5.027 4.022-1.508 1.005-3.519 2.514-5.53 3.016-2.011 1.005-4.022 1.508-6.535 2.011s-5.027 0.503-8.043 0.503c-5.027 0-9.551-1.005-13.573-2.514s-7.541-4.022-10.557-7.038c-3.016-3.016-5.027-6.535-6.535-10.557-1.508-3.519-2.514-8.043-2.514-12.568s0.503-9.049 2.514-12.568c2.011-4.022 4.022-7.541 6.535-10.557 3.016-3.016 6.535-5.53 10.557-7.038 3.519-1.508 8.043-2.514 12.568-2.514 3.016 0 6.032 0.503 8.043 0.503 2.514 0.503 5.027 1.508 7.038 2.514s4.022 2.514 6.032 3.519c3.016 2.514 4.524 4.022 6.032 6.032v0zM782.704-48.919v28.654c0 6.535-1.508 11.562-5.027 15.081s-8.546 5.027-16.086 5.027c-4.022 0-7.038-0.503-10.054-1.005s-5.53-1.508-8.043-3.016l3.016-8.546c2.514 1.005 4.524 1.508 6.535 2.011 2.514 0.503 4.524 1.005 7.541 1.005 4.022 0 6.535-1.005 8.546-2.514s3.016-4.524 3.016-7.541v-1.508c-1.508 1.005-3.519 1.005-6.032 1.508-2.011 0.503-4.524 0.503-7.038 0.503-3.016 0-5.53-0.503-8.043-1.005s-4.524-1.508-6.535-3.016c-1.508-1.005-3.016-3.016-4.022-4.524-1.005-2.011-1.508-4.524-1.508-7.038v-0.503c0-2.514 0.503-4.524 1.508-6.535 1.005-1.508 2.514-3.519 3.519-4.524 1.508-1.005 3.519-2.011 5.53-3.016 2.011-0.503 4.022-1.005 6.535-1.005 3.519 0 7.038 0.503 9.049 2.011 2.514 1.508 4.524 3.016 6.535 5.027v-6.032h11.059zM772.147-31.827c0-1.508-0.503-3.016-1.005-4.524-1.005-1.005-1.508-2.514-3.016-3.016-1.005-1.005-2.514-1.508-4.022-2.011s-3.016-0.503-5.027-0.503c-2.514 0-5.027 0.503-6.535 1.508-2.011 1.005-2.514 3.016-2.514 5.027v0.503c0 2.514 1.005 4.524 3.016 6.032 2.011 1.005 4.524 2.011 8.043 2.011 2.011 0 4.022-0.503 6.032-0.503 1.508-0.503 3.519-1.005 5.027-1.508v-3.016zM806.834-30.822c0 3.016 0.503 6.032 1.005 8.043 1.005 2.514 2.011 4.524 3.519 6.032s3.016 3.016 5.027 3.519c1.508 1.005 4.022 1.005 6.535 1.005h1.005v12.065c-4.524 0-8.043-1.005-10.557-3.016s-5.027-5.027-6.535-8.546v10.557h-11.059v-47.757h11.059v18.097zM840.012-29.314h35.189c0 0.503 0 1.005 0 1.508s0 1.005 0 1.508c0 3.519-0.503 7.038-1.508 10.054s-2.514 6.032-4.524 8.043c-1.508 2.514-4.022 4.524-7.038 6.032-3.016 1.005-6.535 2.011-10.054 2.011s-6.535-0.503-9.551-2.011c-3.016-1.508-5.027-3.016-7.038-5.53-2.514-2.514-4.022-5.027-5.027-8.043s-1.508-6.535-1.508-10.054c0-3.519 0.503-7.038 1.508-10.054 1.508-3.016 3.016-6.032 5.53-8.043 2.011-2.514 4.524-4.022 8.043-5.027 3.016-1.005 6.032-1.508 9.551-1.508 4.524 0 8.043 1.005 11.562 2.514 3.016 1.508 6.032 3.519 8.546 6.535l-6.535 6.032c-2.011-2.011-4.022-3.519-6.032-4.524s-4.524-1.508-7.038-1.508c-4.022 0-6.535 1.005-9.551 3.016-2.011 2.514-3.519 5.027-4.524 9.049v0zM840.012-21.773c0.503 4.022 1.508 7.038 4.022 9.049 2.011 2.514 5.027 3.519 8.546 3.519 2.011 0 3.016-0.503 4.524-1.005s3.016-1.508 4.022-2.514c1.005-1.005 1.508-2.514 2.514-4.022 0.503-1.508 1.005-3.016 1.005-5.027h-24.632zM924.968-2.168c0 2.011 1.005 4.022 2.514 5.53 2.011 1.508 4.524 2.011 8.043 2.011 3.016 0 6.032-0.503 8.546-1.508s5.53-3.016 8.546-5.027l6.032 8.546c-3.016 2.514-6.535 4.524-10.557 6.032s-8.043 2.514-12.568 2.514c-3.016 0-6.032-0.503-8.546-1.508s-5.027-2.011-7.038-4.022c-1.508-1.508-3.016-3.519-4.524-6.032-1.005-2.514-1.508-5.027-1.508-8.043s0.503-5.027 1.508-7.541c1.005-2.011 2.514-4.022 4.022-5.027 1.508-1.508 4.022-2.514 6.535-3.519s6.032-2.011 9.049-2.514c3.016-1.005 5.53-1.508 7.038-2.514 2.011-0.503 3.519-1.005 4.524-2.011s2.011-1.508 2.514-2.514c0.503-1.005 0.503-1.508 0.503-3.016 0-2.514-1.005-4.524-3.016-6.032s-5.027-2.011-8.546-2.011c-4.022 0-7.541 0.503-10.557 2.011s-6.535 3.519-9.049 6.032l-7.038-8.043c4.022-3.519 8.043-6.032 12.568-8.043 4.524-1.508 9.049-2.514 14.076-2.514 3.519 0 6.535 0.503 9.049 1.508 3.016 1.005 5.027 2.011 7.038 3.519s3.519 3.519 4.524 6.032c1.005 2.514 1.508 5.027 1.508 8.043s-0.503 5.027-1.508 7.038c-1.005 2.011-2.011 4.022-3.519 5.027-2.011 1.508-4.022 3.016-6.535 3.519-2.514 1.005-5.53 2.011-9.049 3.016-3.016 1.005-5.53 1.508-7.541 2.011-2.011 1.005-3.519 1.508-4.524 2.514s-1.508 1.508-2.514 2.514c0.503 2.011 0 3.016 0 4.022v0zM1021.486-25.292c0 3.519-1.005 7.038-2.011 10.054s-3.016 6.032-5.027 8.043c-2.514 2.011-5.027 4.022-8.043 5.027-3.016 1.508-6.535 2.011-10.557 2.011-3.519 0-7.038-0.503-10.054-2.011s-6.032-3.016-8.043-5.53c-2.514-2.514-4.022-5.027-5.53-8.043-1.005-3.016-1.508-6.535-1.508-10.054s0.503-6.535 1.508-10.054c1.508-3.016 3.016-5.53 5.53-8.043s5.027-4.022 8.043-5.027c3.016-1.508 6.535-2.011 10.054-2.011s7.038 0.503 10.054 2.011c3.016 1.005 6.032 3.016 8.043 5.027 2.514 2.514 4.022 5.027 5.53 8.043 1.005 4.022 2.011 7.541 2.011 10.557v0zM1010.427-25.292c0-2.011-0.503-4.022-1.005-6.032-0.503-1.508-1.508-3.519-3.016-5.027-1.005-1.005-3.016-2.514-4.524-3.016-1.508-1.005-4.022-1.005-6.032-1.005s-4.022 0.503-6.032 1.005c-2.011 1.005-3.016 2.011-4.524 3.016-1.005 1.508-2.514 3.016-3.016 5.027-0.503 1.508-1.005 4.022-1.005 6.032 0 2.514 0.503 4.524 1.005 6.032s1.508 3.519 3.016 5.027c1.508 1.508 3.016 2.514 4.524 3.016 1.508 1.005 4.022 1.508 6.032 1.508s4.022-0.503 6.032-1.508c1.508-0.503 3.519-1.508 4.524-3.016 1.508-1.508 2.514-3.016 3.016-5.027s1.005-4.022 1.005-6.032v0zM1044.108-48.919v66.356h-11.059v-66.356h11.059zM1090.356-28.308c0-3.519-1.005-6.535-3.016-8.546-2.011-2.514-4.524-3.016-8.043-3.016s-6.032 1.005-8.043 3.016c-1.508 2.011-2.514 5.027-2.514 8.546v27.146h-11.059v-30.665c0-6.032 1.508-10.054 4.524-13.573 3.016-3.016 7.038-5.027 12.568-5.027 4.022 0 6.535 1.005 9.049 2.514s4.022 3.519 6.032 6.032v-7.038h11.059v47.757h-11.059v-27.146zM1128.059-10.714h13.070v9.049h-13.070v13.573h-11.059v-13.573h-6.032v-9.049h6.032v-25.638c0-2.514 0.503-4.524 1.005-6.535 0.503-1.508 2.011-3.016 3.016-4.524 1.005-1.005 2.514-1.508 4.524-2.514 1.508-0.503 3.519-0.503 5.53-0.503s4.022 0.503 5.53 0.503c1.508 0.503 3.016 1.005 4.524 1.508v9.049c-2.011-1.005-4.524-1.508-6.535-1.508s-3.519 0.503-4.524 1.508c-1.005 1.005-1.508 2.514-1.508 4.524v24.13zM1164.756 6.378v10.557h-12.065v-10.557h12.065zM1164.253-48.919v47.757h-11.059v-47.757h11.059zM1227.091-25.292c0 3.519-0.503 7.038-2.011 10.054-1.005 3.016-3.016 6.032-5.027 8.043-2.514 2.011-5.027 4.022-8.043 5.027-3.016 1.508-6.535 2.011-10.054 2.011-4.022 0-7.038-0.503-10.557-2.011-3.016-1.508-6.032-3.016-8.043-5.53s-4.022-5.027-5.027-8.043c-1.508-3.016-2.011-6.535-2.011-10.054s0.503-6.535 2.011-10.054c1.005-3.016 3.016-5.53 5.027-8.043 2.514-2.514 5.027-4.022 8.043-5.027 3.016-1.508 6.535-2.011 10.054-2.011s7.038 0.503 10.557 2.011c3.016 1.005 6.032 3.016 8.043 5.027 2.011 2.514 4.022 5.027 5.027 8.043 1.508 4.022 2.011 7.541 2.011 10.557v0zM1216.534-25.292c0-2.011-0.503-4.022-1.005-6.032-0.503-1.508-1.508-3.519-3.016-5.027-1.005-1.005-2.514-2.514-4.524-3.016-2.011-1.005-4.022-1.005-6.032-1.005-2.514 0-4.022 0.503-6.032 1.005-2.011 1.005-3.016 2.011-4.524 3.016-1.005 1.508-2.514 3.016-3.016 5.027-1.005 1.508-1.005 4.022-1.005 6.032 0 2.514 0.503 4.524 1.005 6.032s1.508 3.519 3.016 5.027c1.005 1.508 2.514 2.514 4.524 3.016 2.011 1.005 4.022 1.508 6.032 1.508 2.514 0 4.022-0.503 6.032-1.508 1.508-0.503 3.016-1.508 4.524-3.016 1.005-1.508 2.514-3.016 3.016-5.027s1.005-4.022 1.005-6.032v0zM1249.712-22.276c0 4.022 1.005 6.535 3.016 8.546 2.011 2.514 4.524 3.016 8.043 3.016 3.016 0 6.032-1.005 7.541-3.016s2.514-5.027 2.514-8.546v-27.146h11.059v30.665c0 6.032-1.508 10.054-4.524 13.573-3.016 3.016-7.038 5.027-12.568 5.027-1.508 0-3.519-0.503-5.027-1.005s-3.016-1.005-4.022-1.508c-1.508-1.005-2.514-1.508-3.519-2.514s-1.508-2.011-2.514-3.016v7.038h-11.059v-47.757h11.059v26.643z" />
</font></defs></svg>